{
    "extensions" :
            [
                "consolelogger_ext.dll",
                "memoryext.dll",
                "python_ext.dll",
                "angelscript_ext.dll",
                "wingui.dll"
            ]
}